---
http_interactions:
- request:
    method: get
    uri: https://api.knackhq.com/v1/objects/object_4/records?page=999&rows_per_page=500
    body:
      encoding: US-ASCII
      string: ''
    headers:
      X-Knack-Application-Id:
      - 123456789
      Content-Type:
      - application/json
      X-Knack-Rest-Api-Key:
      - 123-456-789
  response:
    status:
      code: 200
      message: OK
    headers:
      Access-Control-Allow-Credentials:
      - 'true'
      Access-Control-Allow-Headers:
      - Origin,X-Requested-With,X-HTTP-Method-Override,Content-Type,Accept,X-Knack-Application-Id,X-Knack-REST-API-Key,Knack_Application_Id,Knack_REST_API_Key
      Access-Control-Allow-Methods:
      - GET, POST, OPTIONS, PUT, DELETE
      Content-Type:
      - application/json; charset=utf-8
      Date:
      - Thu, 19 Mar 2015 18:49:11 GMT
      Etag:
      - W/"46-29022bef"
      P3p:
      - policyref="https://api.knackhq.com/w3c/p3p.xml", CP="IDC DSP COR ADM DEVi
        TAIi PSA PSD IVAi IVDi CONi HIS OUR IND CNT", CP="CAO PSA OUR"
      Server:
      - nginx/1.4.6 (Ubuntu)
      Set-Cookie:
      - connect.sid=s%3ALKnB0py_aGx_pKqxvUBygDJkO6VGe5fM.KAaWuCkkG%2Ftqq83ZX7NAwnlYbRebNcMloGzBDJE1lpo;
        Path=/; Expires=Sat, 21 Mar 2015 17:49:34 GMT; HttpOnly
      Vary:
      - Accept-Encoding
      - Accept-Encoding
      X-Content-Type-Options:
      - nosniff
      X-Knack-Server:
      - us-e-node-1
      Content-Length:
      - '70'
      Connection:
      - keep-alive
    body:
      encoding: UTF-8
      string: '{"total_pages":2,"current_page":"999","total_records":28,"records":[]}'
    http_version:
  recorded_at: Thu, 19 Mar 2015 18:49:11 GMT
recorded_with: VCR 2.9.3
